…
Please file a minimal reproducible example of any clear bug at [github](https://github.com/leonawicz/mapmate/issues).

Introduction and basic example
------------------------------

The `mapmate` package is used for map- and globe-based data animation pre-production. Specifically, `mapmate` functions are used to generate and save to disk a series of map graphics that make up a still image sequence, which can then be used in video editing and rendering software of the user's choice. This package does not make simple animations directly within R, which can be done with packages like `animation`. `mapmate` is more specific to maps, hence the name, and particularly suited to 3D globe plots of the Earth. Functionality and fine-grain user control of inputs and outputs are limited in the current package version.

``` r
library(mapmate)
library(dplyr)
data(annualtemps)
annualtemps
#> # A tibble: 55,080 x 4
#>      lon   lat  Year     z
#>    <dbl> <dbl> <int> <dbl>
#>  1 -177.  53.7  2010  1.09
#>  2 -177.  67.0  2010  3.21
#>  3 -177.  73.7  2010  2.76
#>  4 -170   53.7  2010  0.91
#>  5 -170   60.3  2010  2.47
#>  6 -170   67.0  2010  2.73
#>  7 -163.  20.3  2010  0.19
#>  8 -163.  53.7  2010  0.79
#>  9 -163.  60.3  2010  1.43
#> 10 -163.  67.0  2010  1.28
#> # ... with 55,070 more rows
…
