mapmate
…
Introduction and basic example

The mapmate package is used for map- and globe-based data animation pre-production. Specifically, mapmate functions are used to generate and save to disk a series of map graphics that make up a still image sequence, which can then be used in video editing and rendering software of the user’s choice. This package does not make simple animations directly within R, which can be done with packages like animation. mapmate is more specific to maps, hence the name, and particularly suited to 3D globe plots of the Earth. Functionality and fine-grain user control of inputs and outputs are limited in the current package version.

library(mapmate)
library(dplyr)
data(annualtemps)
annualtemps
#> # A tibble: 55,080 × 4
#>          lon      lat  Year     z
#>        <dbl>    <dbl> <int> <dbl>
#> 1  -176.6667 53.66633  2010  1.09
#> 2  -176.6667 66.99967  2010  3.21
#> 3  -176.6667 73.66633  2010  2.76
#> 4  -170.0000 53.66633  2010  0.91
#> 5  -170.0000 60.33300  2010  2.47
#> 6  -170.0000 66.99967  2010  2.73
#> 7  -163.3333 20.33300  2010  0.19
#> 8  -163.3333 53.66633  2010  0.79
#> 9  -163.3333 60.33300  2010  1.43
#> 10 -163.3333 66.99967  2010  1.28
#> # ... with 55,070 more rows
…
