Network maps
…
Setup

Obtain great circle arc endpoints

The first example uses a flat map. Therefore it is important to break lines at the international dateline when preparing the data. In the second example, lines cross the dateline are not split because the segments will be plotted on the globe.

First, begin with the network data set provided in mapmate is a simple data frame of lon/lat locations of various cities and corresponding weights related to population sizes. It must be expanded to a larger, more complex data frame that contains location pairs and, optionally, distances between locations in each pair. gc_endpoints assists with this by simulating some pairs. The resulting data frame contains endpoints of lines that are defined subsequently.

library(mapmate)
library(dplyr)

set.seed(192)
data(network)
network
> # A tibble: 1,000 × 3
>            lon       lat Pop_wts
>          <dbl>     <dbl>   <dbl>
> 1    52.735833  55.02222   0.007
> 2    37.437500  55.90167   0.087
> 3    -4.566667  36.60000   0.030
> 4    79.166667  14.18333   0.024
> 5  -122.240556  37.76528   0.052
> 6    18.550000  53.96667   0.037
> 7   105.844167  21.59278   0.083
> 8    78.650000  27.81667   0.067
> 9     8.083333  51.38333   0.056
> 10   29.550000 -11.35000   0.013
> # ... with 990 more rows

distFun <- function(x) 1 - x/max(x)  # simple inverse distance weighting
endpoints <- gc_endpoints(network, "lon", "lat")
endpoints
> # A tibble: 250,000 × 7
>           lon0       lat0       lon1      lat1 Pop_wts0 Pop_wts1     Dist
>          <dbl>      <dbl>      <dbl>     <dbl>    <dbl>    <dbl>    <dbl>
> 1  -122.038889  38.249444 -62.283333 -38.71667    0.070    0.135 10484873
> 2   -37.933333 -11.466667   1.933333  41.46667    0.017    0.018  7143933
> 3   -85.600556  43.045556 115.562500  35.06833    0.007    0.044 11092147
> 4    28.400000 -24.700000 -43.448889 -22.75722    0.013    0.281  7239491
> 5    -1.700000   4.933333  88.423611  26.71611    0.069    0.193  9783199
> 6    75.800000  19.616667   2.450000  48.63333    0.023    0.040  7182193
> 7     5.516667   7.800000 -79.766667  22.16667    0.073    0.125  9209108
> 8    85.200000  25.150000  51.516667  30.11667    0.024    0.048  3357233
> 9   -79.792222  36.072500  16.916667  40.80000    0.119    0.019  7996430
> 10  -76.545556  39.070278 -51.450000 -25.38333    0.023    0.090  7598058
> # ... with 249,990 more rows
…
The default number of points added between the endpoints of each great circle arc is n=50, but this can be changed and can also differ for each arc (e.g., based on distance between points). As noted, arcs are filled out planning for use with both flat maps and a globes. A group column is used to identify distinct arcs for plotting.

# take a weighted sample, e.g., favoring larger averaged populations and
# shorter distances
endpoints <- mutate(endpoints, Dist_wts = distFun(Dist))
endpoints <- sample_n(endpoints, 500, replace = TRUE, weight = (Pop_wts0 + Pop_wts1)/2 + 
    Dist_wts)

# expand data frame from endpoints to arcs, each composed of a sequence of
# points
arcs_flat <- gc_arcs(endpoints, "lon0", "lat0", "lon1", "lat1", breakAtDateLine = TRUE)
arcs_globe <- gc_arcs(endpoints, "lon0", "lat0", "lon1", "lat1")
arcs_globe
> # A tibble: 26,000 × 3
>          lon       lat group
>        <dbl>     <dbl> <int>
> 1  -44.18333 -22.53333     1
> 2  -41.94175 -24.33357     1
> 3  -39.63616 -26.09993     1
> 4  -37.26062 -27.82853     1
> 5  -34.80914 -29.51517     1
> 6  -32.27574 -31.15533     1
> 7  -29.65453 -32.74417     1
> 8  -26.93986 -34.27651     1
> 9  -24.12650 -35.74680     1
> 10 -21.20975 -37.14917     1
> # ... with 25,990 more rows

Obtain great circle arc path sequences

Finally, gc_paths is used to further expand the great circle arcs data frame into one that contains sequences of ordered segments along each arc. The segments can vary in length between distinct arcs and can overlap one another within an arc. The group argument is required to identify distinct arcs in the input data frame. size is required to set an upper limit on the number of points constituting an arc segment; the actual length of the segments is chosen randomly and uniformly between 2 and size. Other arguments are optional.

paths_flat <- gc_paths(arcs_flat, "group", size = 5)
paths_globe <- gc_paths(arcs_globe, "group", size = 5)
paths_globe
> # A tibble: 45,871 × 4
>          lon       lat group    id
>        <dbl>     <dbl> <int> <int>
> 1  -44.18333 -22.53333     1     1
> 2  -41.94175 -24.33357     1     1
> 3  -39.63616 -26.09993     1     1
> 4  -37.26062 -27.82853     1     1
> 5  -37.26062 -27.82853     1     2
> 6  -34.80914 -29.51517     1     2
> 7  -32.27574 -31.15533     1     2
> 8  -29.65453 -32.74417     1     2
> 9  -26.93986 -34.27651     1     2
> 10 -26.93986 -34.27651     1     3
> # ... with 45,861 more rows
…
