Project points onto globe — do_projection â€¢ mapmate
…
    Examples

library(dplyr)
library(purrr)
data(annualtemps)
temps <- mutate(annualtemps, frameID = Year - min(Year) + 1)
do_projection(temps, id="frameID")
#> Joining, by = c("lon", "lat", "frameID")
#> # A tibble: 28,641 x 5
#>      lon      lat  Year     z frameID
#>    <dbl>    <dbl> <int> <dbl>   <dbl>
#>  1   -90  0.33300  2010  0.33       1
#>  2   -90 13.66633  2010  0.69       1
#>  3   -90 20.33300  2010  0.54       1
#>  4   -90 26.99967  2010  1.10       1
#>  5   -90 33.66633  2010  1.35       1
#>  6   -90 40.33300  2010  1.49       1
#>  7   -90 46.99967  2010  1.24       1
#>  8   -90 53.66633  2010  0.79       1
#>  9   -90 60.33300  2010  1.40       1
#> 10   -90 66.99967  2010  1.96       1
#> # ... with 28,631 more rows
do_projection(temps, id="frameID", keep=TRUE)
#> Joining, by = c("lon", "lat", "frameID")
#> # A tibble: 55,080 x 6
#>          lon      lat  Year     z frameID inview
#>        <dbl>    <dbl> <int> <dbl>   <dbl>  <lgl>
#>  1 -176.6667 53.66633  2010  1.09       1  FALSE
#>  2 -176.6667 66.99967  2010  3.21       1  FALSE
#>  3 -176.6667 73.66633  2010  2.76       1  FALSE
#>  4 -170.0000 53.66633  2010  0.91       1  FALSE
#>  5 -170.0000 60.33300  2010  2.47       1  FALSE
#>  6 -170.0000 66.99967  2010  2.73       1  FALSE
#>  7 -163.3333 20.33300  2010  0.19       1  FALSE
#>  8 -163.3333 53.66633  2010  0.79       1  FALSE
#>  9 -163.3333 60.33300  2010  1.43       1  FALSE
#> 10 -163.3333 66.99967  2010  1.28       1  FALSE
#> # ... with 55,070 more rows
…
