Obtain moving average map series — get_ma â€¢ mapmate
…
Parallel processing is Linux-only (uses mclapply) and the default of 32 CPU cores will have to be changed if you don't have that many.
It is convenient for my usage and this package version is not intended for general use.
Most other users will probably not be using parallel processing at all, in which case n.cores is ignored.

    Examples

data(monthlytemps)
res <- "seasonal" # annual, seasonal, monthly
season <- "winter" # winter, spring, summer, autumn
idx <- switch(season, winter=c(12,1,2), spring=3:5, summer=6:8, autumn=9:11)
if(res=="seasonal") monthlytemps <- dplyr::filter(monthlytemps, Month %in% idx)
get_ma(monthlytemps, res, season)
#> # A tibble: 80 x 4
#>          lon      lat  Year         z
#>        <dbl>    <dbl> <dbl>     <dbl>
#>  1 -176.6667 53.66633  2015 0.5263333
#>  2 -176.6667 53.66633  2016 0.4096667
#>  3 -176.6667 53.66633  2017 0.5216667
#>  4 -176.6667 53.66633  2018 0.4596667
#>  5 -176.6667 53.66633  2019 0.5473333
#>  6 -176.6667 53.66633  2020 0.4766667
#>  7 -176.6667 53.66633  2021 0.5983333
#>  8 -176.6667 53.66633  2022 0.7020000
#>  9 -176.6667 53.66633  2023 0.6650000
#> 10 -176.6667 53.66633  2024 0.7126667
#> # ... with 70 more rows
get_ma(list(monthlytemps, monthlytemps), res, season)
#> # A tibble: 160 x 4
#>          lon      lat  Year         z
#>        <dbl>    <dbl> <dbl>     <dbl>
#>  1 -176.6667 53.66633  2015 0.5263333
#>  2 -176.6667 53.66633  2016 0.4096667
#>  3 -176.6667 53.66633  2017 0.5216667
#>  4 -176.6667 53.66633  2018 0.4596667
#>  5 -176.6667 53.66633  2019 0.5473333
#>  6 -176.6667 53.66633  2020 0.4766667
#>  7 -176.6667 53.66633  2021 0.5983333
#>  8 -176.6667 53.66633  2022 0.7020000
#>  9 -176.6667 53.66633  2023 0.6650000
#> 10 -176.6667 53.66633  2024 0.7126667
#> # ... with 150 more rows
…
