Pad the end of list of data frames — pad_frames â€¢ mapmate
…
    Examples

library(dplyr)
library(purrr)
data(annualtemps)
x <- map(1:4, ~mutate(filter(annualtemps, Year-2009==.x), idx=.x))
n <- 6
pad_frames(x, id="idx", n.period=n, rotation="add")
#> [[1]]
#> # A tibble: 612 x 5
#>          lon      lat  Year     z   idx
#>        <dbl>    <dbl> <int> <dbl> <int>
#>  1 -176.6667 53.66633  2010  1.09     1
#>  2 -176.6667 66.99967  2010  3.21     1
#>  3 -176.6667 73.66633  2010  2.76     1
#>  4 -170.0000 53.66633  2010  0.91     1
#>  5 -170.0000 60.33300  2010  2.47     1
#>  6 -170.0000 66.99967  2010  2.73     1
#>  7 -163.3333 20.33300  2010  0.19     1
#>  8 -163.3333 53.66633  2010  0.79     1
#>  9 -163.3333 60.33300  2010  1.43     1
#> 10 -163.3333 66.99967  2010  1.28     1
#> # ... with 602 more rows
#> 
#> [[2]]
#> # A tibble: 612 x 5
#>          lon      lat  Year     z   idx
#>        <dbl>    <dbl> <int> <dbl> <int>
#>  1 -176.6667 53.66633  2011  0.57     2
#>  2 -176.6667 66.99967  2011  2.52     2
#>  3 -176.6667 73.66633  2011  1.93     2
#>  4 -170.0000 53.66633  2011  0.67     2
#>  5 -170.0000 60.33300  2011  2.65     2
#>  6 -170.0000 66.99967  2011  2.73     2
#>  7 -163.3333 20.33300  2011  0.99     2
#>  8 -163.3333 53.66633  2011  1.37     2
#>  9 -163.3333 60.33300  2011  3.01     2
#> 10 -163.3333 66.99967  2011  2.78     2
#> # ... with 602 more rows
#> 
#> [[3]]
#> # A tibble: 612 x 5
#>          lon      lat  Year     z   idx
#>        <dbl>    <dbl> <int> <dbl> <int>
#>  1 -176.6667 53.66633  2012 -0.25     3
#>  2 -176.6667 66.99967  2012  2.04     3
#>  3 -176.6667 73.66633  2012  2.00     3
#>  4 -170.0000 53.66633  2012  0.23     3
#>  5 -170.0000 60.33300  2012  1.02     3
#>  6 -170.0000 66.99967  2012  1.56     3
#>  7 -163.3333 20.33300  2012  0.79     3
#>  8 -163.3333 53.66633  2012  0.70     3
#>  9 -163.3333 60.33300  2012  1.47     3
#> 10 -163.3333 66.99967  2012  1.91     3
#> # ... with 602 more rows
#> 
#> [[4]]
#> # A tibble: 612 x 5
#>          lon      lat  Year     z   idx
#>        <dbl>    <dbl> <int> <dbl> <int>
#>  1 -176.6667 53.66633  2013  0.85     4
#>  2 -176.6667 66.99967  2013  2.46     4
#>  3 -176.6667 73.66633  2013  2.09     4
#>  4 -170.0000 53.66633  2013  1.38     4
#>  5 -170.0000 60.33300  2013  2.26     4
#>  6 -170.0000 66.99967  2013  2.44     4
#>  7 -163.3333 20.33300  2013  0.28     4
#>  8 -163.3333 53.66633  2013  1.64     4
#>  9 -163.3333 60.33300  2013  2.06     4
#> 10 -163.3333 66.99967  2013  2.09     4
#> # ... with 602 more rows
#> 
#> [[5]]
#> # A tibble: 612 x 5
#>          lon      lat  Year     z   idx
#>        <dbl>    <dbl> <int> <dbl> <int>
#>  1 -176.6667 53.66633  2013  0.85     5
#>  2 -176.6667 66.99967  2013  2.46     5
#>  3 -176.6667 73.66633  2013  2.09     5
#>  4 -170.0000 53.66633  2013  1.38     5
#>  5 -170.0000 60.33300  2013  2.26     5
#>  6 -170.0000 66.99967  2013  2.44     5
#>  7 -163.3333 20.33300  2013  0.28     5
#>  8 -163.3333 53.66633  2013  1.64     5
#>  9 -163.3333 60.33300  2013  2.06     5
#> 10 -163.3333 66.99967  2013  2.09     5
#> # ... with 602 more rows
#> 
#> [[6]]
#> # A tibble: 612 x 5
#>          lon      lat  Year     z   idx
#>        <dbl>    <dbl> <int> <dbl> <int>
#>  1 -176.6667 53.66633  2013  0.85     6
#>  2 -176.6667 66.99967  2013  2.46     6
#>  3 -176.6667 73.66633  2013  2.09     6
#>  4 -170.0000 53.66633  2013  1.38     6
#>  5 -170.0000 60.33300  2013  2.26     6
#>  6 -170.0000 66.99967  2013  2.44     6
#>  7 -163.3333 20.33300  2013  0.28     6
#>  8 -163.3333 53.66633  2013  1.64     6
#>  9 -163.3333 60.33300  2013  2.06     6
#> 10 -163.3333 66.99967  2013  2.09     6
#> # ... with 602 more rows
#> 
#> [[7]]
#> # A tibble: 612 x 5
#>          lon      lat  Year     z   idx
#>        <dbl>    <dbl> <int> <dbl> <int>
#>  1 -176.6667 53.66633  2013  0.85     7
#>  2 -176.6667 66.99967  2013  2.46     7
#>  3 -176.6667 73.66633  2013  2.09     7
#>  4 -170.0000 53.66633  2013  1.38     7
#>  5 -170.0000 60.33300  2013  2.26     7
#>  6 -170.0000 66.99967  2013  2.44     7
#>  7 -163.3333 20.33300  2013  0.28     7
#>  8 -163.3333 53.66633  2013  1.64     7
#>  9 -163.3333 60.33300  2013  2.06     7
#> 10 -163.3333 66.99967  2013  2.09     7
#> # ... with 602 more rows
#> 
#> [[8]]
#> # A tibble: 612 x 5
#>          lon      lat  Year     z   idx
#>        <dbl>    <dbl> <int> <dbl> <int>
#>  1 -176.6667 53.66633  2013  0.85     8
#>  2 -176.6667 66.99967  2013  2.46     8
#>  3 -176.6667 73.66633  2013  2.09     8
#>  4 -170.0000 53.66633  2013  1.38     8
#>  5 -170.0000 60.33300  2013  2.26     8
#>  6 -170.0000 66.99967  2013  2.44     8
#>  7 -163.3333 20.33300  2013  0.28     8
#>  8 -163.3333 53.66633  2013  1.64     8
#>  9 -163.3333 60.33300  2013  2.06     8
#> 10 -163.3333 66.99967  2013  2.09     8
#> # ... with 602 more rows
#> 
#> [[9]]
#> # A tibble: 612 x 5
#>          lon      lat  Year     z   idx
#>        <dbl>    <dbl> <int> <dbl> <int>
#>  1 -176.6667 53.66633  2013  0.85     9
#>  2 -176.6667 66.99967  2013  2.46     9
#>  3 -176.6667 73.66633  2013  2.09     9
#>  4 -170.0000 53.66633  2013  1.38     9
#>  5 -170.0000 60.33300  2013  2.26     9
#>  6 -170.0000 66.99967  2013  2.44     9
#>  7 -163.3333 20.33300  2013  0.28     9
#>  8 -163.3333 53.66633  2013  1.64     9
#>  9 -163.3333 60.33300  2013  2.06     9
#> 10 -163.3333 66.99967  2013  2.09     9
#> # ... with 602 more rows
#> 
pad_frames(x, id="idx", n.period=n, rotation="pad")
#> [[1]]
#> # A tibble: 612 x 5
#>          lon      lat  Year     z   idx
#>        <dbl>    <dbl> <int> <dbl> <int>
#>  1 -176.6667 53.66633  2010  1.09     1
#>  2 -176.6667 66.99967  2010  3.21     1
#>  3 -176.6667 73.66633  2010  2.76     1
#>  4 -170.0000 53.66633  2010  0.91     1
#>  5 -170.0000 60.33300  2010  2.47     1
#>  6 -170.0000 66.99967  2010  2.73     1
#>  7 -163.3333 20.33300  2010  0.19     1
#>  8 -163.3333 53.66633  2010  0.79     1
#>  9 -163.3333 60.33300  2010  1.43     1
#> 10 -163.3333 66.99967  2010  1.28     1
#> # ... with 602 more rows
#> 
#> [[2]]
#> # A tibble: 612 x 5
#>          lon      lat  Year     z   idx
#>        <dbl>    <dbl> <int> <dbl> <int>
#>  1 -176.6667 53.66633  2011  0.57     2
#>  2 -176.6667 66.99967  2011  2.52     2
#>  3 -176.6667 73.66633  2011  1.93     2
#>  4 -170.0000 53.66633  2011  0.67     2
#>  5 -170.0000 60.33300  2011  2.65     2
#>  6 -170.0000 66.99967  2011  2.73     2
#>  7 -163.3333 20.33300  2011  0.99     2
#>  8 -163.3333 53.66633  2011  1.37     2
#>  9 -163.3333 60.33300  2011  3.01     2
#> 10 -163.3333 66.99967  2011  2.78     2
#> # ... with 602 more rows
#> 
#> [[3]]
#> # A tibble: 612 x 5
#>          lon      lat  Year     z   idx
#>        <dbl>    <dbl> <int> <dbl> <int>
#>  1 -176.6667 53.66633  2012 -0.25     3
#>  2 -176.6667 66.99967  2012  2.04     3
#>  3 -176.6667 73.66633  2012  2.00     3
#>  4 -170.0000 53.66633  2012  0.23     3
#>  5 -170.0000 60.33300  2012  1.02     3
#>  6 -170.0000 66.99967  2012  1.56     3
#>  7 -163.3333 20.33300  2012  0.79     3
#>  8 -163.3333 53.66633  2012  0.70     3
#>  9 -163.3333 60.33300  2012  1.47     3
#> 10 -163.3333 66.99967  2012  1.91     3
#> # ... with 602 more rows
#> 
#> [[4]]
#> # A tibble: 612 x 5
#>          lon      lat  Year     z   idx
#>        <dbl>    <dbl> <int> <dbl> <int>
#>  1 -176.6667 53.66633  2013  0.85     4
#>  2 -176.6667 66.99967  2013  2.46     4
#>  3 -176.6667 73.66633  2013  2.09     4
#>  4 -170.0000 53.66633  2013  1.38     4
#>  5 -170.0000 60.33300  2013  2.26     4
#>  6 -170.0000 66.99967  2013  2.44     4
#>  7 -163.3333 20.33300  2013  0.28     4
#>  8 -163.3333 53.66633  2013  1.64     4
#>  9 -163.3333 60.33300  2013  2.06     4
#> 10 -163.3333 66.99967  2013  2.09     4
#> # ... with 602 more rows
#> 
#> [[5]]
#> # A tibble: 612 x 5
#>          lon      lat  Year     z   idx
#>        <dbl>    <dbl> <int> <dbl> <int>
#>  1 -176.6667 53.66633  2013  0.85     5
#>  2 -176.6667 66.99967  2013  2.46     5
#>  3 -176.6667 73.66633  2013  2.09     5
#>  4 -170.0000 53.66633  2013  1.38     5
#>  5 -170.0000 60.33300  2013  2.26     5
#>  6 -170.0000 66.99967  2013  2.44     5
#>  7 -163.3333 20.33300  2013  0.28     5
#>  8 -163.3333 53.66633  2013  1.64     5
#>  9 -163.3333 60.33300  2013  2.06     5
#> 10 -163.3333 66.99967  2013  2.09     5
#> # ... with 602 more rows
#> 
#> [[6]]
#> # A tibble: 612 x 5
#>          lon      lat  Year     z   idx
#>        <dbl>    <dbl> <int> <dbl> <int>
#>  1 -176.6667 53.66633  2013  0.85     6
#>  2 -176.6667 66.99967  2013  2.46     6
#>  3 -176.6667 73.66633  2013  2.09     6
#>  4 -170.0000 53.66633  2013  1.38     6
#>  5 -170.0000 60.33300  2013  2.26     6
#>  6 -170.0000 66.99967  2013  2.44     6
#>  7 -163.3333 20.33300  2013  0.28     6
#>  8 -163.3333 53.66633  2013  1.64     6
#>  9 -163.3333 60.33300  2013  2.06     6
#> 10 -163.3333 66.99967  2013  2.09     6
#> # ... with 602 more rows
…
